^D:\PROGRAMMING\VISUAL STUDIO 2010\PROJECTS\RECAPP\RECAPP\DEBUG\.NETFRAMEWORK,VERSION=V4.0.ASSEMBLYATTRIBUTES.OBJ|D:\PROGRAMMING\VISUAL STUDIO 2010\PROJECTS\RECAPP\RECAPP\DEBUG\APP.RES|D:\PROGRAMMING\VISUAL STUDIO 2010\PROJECTS\RECAPP\RECAPP\DEBUG\ASSEMBLYINFO.OBJ|D:\PROGRAMMING\VISUAL STUDIO 2010\PROJECTS\RECAPP\RECAPP\DEBUG\CONTACTINFO.OBJ|D:\PROGRAMMING\VISUAL STUDIO 2010\PROJECTS\RECAPP\RECAPP\DEBUG\CONTROLLER.OBJ|D:\PROGRAMMING\VISUAL STUDIO 2010\PROJECTS\RECAPP\RECAPP\DEBUG\CUSTOMER.OBJ|D:\PROGRAMMING\VISUAL STUDIO 2010\PROJECTS\RECAPP\RECAPP\DEBUG\LOGINFORM.OBJ|D:\PROGRAMMING\VISUAL STUDIO 2010\PROJECTS\RECAPP\RECAPP\DEBUG\MAINFORM.OBJ|D:\PROGRAMMING\VISUAL STUDIO 2010\PROJECTS\RECAPP\RECAPP\DEBUG\RECAPP.OBJ|D:\PROGRAMMING\VISUAL STUDIO 2010\PROJECTS\RECAPP\RECAPP\DEBUG\STDAFX.OBJ|D:\PROGRAMMING\VISUAL STUDIO 2010\PROJECTS\RECAPP\RECAPP\DEBUG\USER.OBJ
/ERRORREPORT:PROMPT /OUT:"D:\programming\Visual Studio 2010\Projects\recapp\Debug\recapp.exe" /INCREMENTAL /NOLOGO /ASSEMBLYRESOURCE:Debug\recapp.LoginForm.resources /ASSEMBLYRESOURCE:Debug\recapp.MainForm.resources /MANIFEST /ManifestFile:"Debug\recapp.exe.intermediate.manifest" /MANIFESTUAC:"level='asInvoker' uiAccess='false'" /DEBUG /PDB:"D:\programming\Visual Studio 2010\Projects\recapp\Debug\recapp.pdb" /ASSEMBLYDEBUG /SUBSYSTEM:WINDOWS /TLBID:1 /ENTRY:"main" /DYNAMICBASE /FIXED:NO /NXCOMPAT /MACHINE:X86 Debug\app.res
Debug\AssemblyInfo.obj
Debug\ContactInfo.obj
Debug\Controller.obj
Debug\Customer.obj
Debug\LoginForm.obj
Debug\MainForm.obj
Debug\recapp.obj
Debug\stdafx.obj
Debug\User.obj
"Debug\.NETFramework,Version=v4.0.AssemblyAttributes.obj"
^C:\USERS\ANDREAS\DOCUMENTS\VISUAL STUDIO 2010\PROJECTS\RECAPP\RECAPP\DEBUG\.NETFRAMEWORK,VERSION=V4.0.ASSEMBLYATTRIBUTES.OBJ|C:\USERS\ANDREAS\DOCUMENTS\VISUAL STUDIO 2010\PROJECTS\RECAPP\RECAPP\DEBUG\APP.RES|C:\USERS\ANDREAS\DOCUMENTS\VISUAL STUDIO 2010\PROJECTS\RECAPP\RECAPP\DEBUG\ASSEMBLYINFO.OBJ|C:\USERS\ANDREAS\DOCUMENTS\VISUAL STUDIO 2010\PROJECTS\RECAPP\RECAPP\DEBUG\CONTACTINFO.OBJ|C:\USERS\ANDREAS\DOCUMENTS\VISUAL STUDIO 2010\PROJECTS\RECAPP\RECAPP\DEBUG\CONTROLLER.OBJ|C:\USERS\ANDREAS\DOCUMENTS\VISUAL STUDIO 2010\PROJECTS\RECAPP\RECAPP\DEBUG\CUSTOMER.OBJ|C:\USERS\ANDREAS\DOCUMENTS\VISUAL STUDIO 2010\PROJECTS\RECAPP\RECAPP\DEBUG\LOGINFORM.OBJ|C:\USERS\ANDREAS\DOCUMENTS\VISUAL STUDIO 2010\PROJECTS\RECAPP\RECAPP\DEBUG\MAINFORM.OBJ|C:\USERS\ANDREAS\DOCUMENTS\VISUAL STUDIO 2010\PROJECTS\RECAPP\RECAPP\DEBUG\RECAPP.OBJ|C:\USERS\ANDREAS\DOCUMENTS\VISUAL STUDIO 2010\PROJECTS\RECAPP\RECAPP\DEBUG\STDAFX.OBJ|C:\USERS\ANDREAS\DOCUMENTS\VISUAL STUDIO 2010\PROJECTS\RECAPP\RECAPP\DEBUG\USER.OBJ
/ERRORREPORT:PROMPT /OUT:"C:\Users\andreas\Documents\Visual Studio 2010\Projects\recapp\Debug\recapp.exe" /INCREMENTAL /NOLOGO /ASSEMBLYRESOURCE:Debug\recapp.LoginForm.resources /ASSEMBLYRESOURCE:Debug\recapp.MainForm.resources /MANIFEST /ManifestFile:"Debug\recapp.exe.intermediate.manifest" /MANIFESTUAC:"level='asInvoker' uiAccess='false'" /DEBUG /PDB:"C:\Users\andreas\Documents\Visual Studio 2010\Projects\recapp\Debug\recapp.pdb" /ASSEMBLYDEBUG /SUBSYSTEM:WINDOWS /TLBID:1 /ENTRY:"main" /DYNAMICBASE /FIXED:NO /NXCOMPAT /MACHINE:X86 Debug\app.res
Debug\AssemblyInfo.obj
Debug\ContactInfo.obj
Debug\Controller.obj
Debug\Customer.obj
Debug\LoginForm.obj
Debug\MainForm.obj
Debug\recapp.obj
Debug\stdafx.obj
Debug\User.obj
"Debug\.NETFramework,Version=v4.0.AssemblyAttributes.obj"
