^C:\USERS\ANDREAS\DOCUMENTS\VISUAL STUDIO 2010\PROJECTS\RECAPP\CALENDAR\STDAFX.CPP
C:\USERS\ANDREAS\DOCUMENTS\VISUAL STUDIO 2010\PROJECTS\RECAPP\CALENDAR\DEBUG\CALENDAR.PCH
C:\USERS\ANDREAS\DOCUMENTS\VISUAL STUDIO 2010\PROJECTS\RECAPP\CALENDAR\DEBUG\STDAFX.OBJ
C:\USERS\ANDREAS\DOCUMENTS\VISUAL STUDIO 2010\PROJECTS\RECAPP\CALENDAR\DEBUG\VC100.PDB
^C:\USERS\ANDREAS\DOCUMENTS\VISUAL STUDIO 2010\PROJECTS\RECAPP\CALENDAR\ASSEMBLYINFO.CPP|C:\USERS\ANDREAS\DOCUMENTS\VISUAL STUDIO 2010\PROJECTS\RECAPP\CALENDAR\CALENDARCONTROL.CPP|C:\USERS\ANDREAS\DOCUMENTS\VISUAL STUDIO 2010\PROJECTS\RECAPP\CALENDAR\EVENTSPAN.CPP|C:\USERS\ANDREAS\DOCUMENTS\VISUAL STUDIO 2010\PROJECTS\RECAPP\CALENDAR\WEEK.CPP
C:\USERS\ANDREAS\DOCUMENTS\VISUAL STUDIO 2010\PROJECTS\RECAPP\CALENDAR\DEBUG\WEEK.OBJ
C:\USERS\ANDREAS\DOCUMENTS\VISUAL STUDIO 2010\PROJECTS\RECAPP\CALENDAR\DEBUG\EVENTSPAN.OBJ
C:\USERS\ANDREAS\DOCUMENTS\VISUAL STUDIO 2010\PROJECTS\RECAPP\CALENDAR\DEBUG\CALENDARCONTROL.OBJ
C:\USERS\ANDREAS\DOCUMENTS\VISUAL STUDIO 2010\PROJECTS\RECAPP\CALENDAR\DEBUG\ASSEMBLYINFO.OBJ
^C:\USERS\ANDREAS\DOCUMENTS\VISUAL STUDIO 2010\PROJECTS\RECAPP\CALENDAR\ASSEMBLYINFO.CPP
C:\USERS\ANDREAS\DOCUMENTS\VISUAL STUDIO 2010\PROJECTS\RECAPP\CALENDAR\DEBUG\VC100.PDB
^C:\USERS\ANDREAS\DOCUMENTS\VISUAL STUDIO 2010\PROJECTS\RECAPP\CALENDAR\EVENTSPAN.CPP
C:\USERS\ANDREAS\DOCUMENTS\VISUAL STUDIO 2010\PROJECTS\RECAPP\CALENDAR\DEBUG\VC100.PDB
^C:\USERS\ANDREAS\DOCUMENTS\VISUAL STUDIO 2010\PROJECTS\RECAPP\CALENDAR\WEEK.CPP
C:\USERS\ANDREAS\DOCUMENTS\VISUAL STUDIO 2010\PROJECTS\RECAPP\CALENDAR\DEBUG\VC100.PDB
^C:\USERS\ANDREAS\APPDATA\LOCAL\TEMP\.NETFRAMEWORK,VERSION=V4.0.ASSEMBLYATTRIBUTES.CPP
C:\USERS\ANDREAS\DOCUMENTS\VISUAL STUDIO 2010\PROJECTS\RECAPP\CALENDAR\DEBUG\.NETFRAMEWORK,VERSION=V4.0.ASSEMBLYATTRIBUTES.OBJ
C:\USERS\ANDREAS\DOCUMENTS\VISUAL STUDIO 2010\PROJECTS\RECAPP\CALENDAR\DEBUG\VC100.PDB
^C:\USERS\ANDREAS\DOCUMENTS\VISUAL STUDIO 2010\PROJECTS\RECAPP\CALENDAR\CALENDARCONTROL.CPP
C:\USERS\ANDREAS\DOCUMENTS\VISUAL STUDIO 2010\PROJECTS\RECAPP\CALENDAR\DEBUG\CALENDARCONTROL.OBJ
C:\USERS\ANDREAS\DOCUMENTS\VISUAL STUDIO 2010\PROJECTS\RECAPP\CALENDAR\DEBUG\VC100.PDB
