^C:\USERS\ANDREAS\DOCUMENTS\VISUAL STUDIO 2010\PROJECTS\RECAPP\CALENDAR\DEBUG\.NETFRAMEWORK,VERSION=V4.0.ASSEMBLYATTRIBUTES.OBJ|C:\USERS\ANDREAS\DOCUMENTS\VISUAL STUDIO 2010\PROJECTS\RECAPP\CALENDAR\DEBUG\APP.RES|C:\USERS\ANDREAS\DOCUMENTS\VISUAL STUDIO 2010\PROJECTS\RECAPP\CALENDAR\DEBUG\ASSEMBLYINFO.OBJ|C:\USERS\ANDREAS\DOCUMENTS\VISUAL STUDIO 2010\PROJECTS\RECAPP\CALENDAR\DEBUG\CALENDARCONTROL.OBJ|C:\USERS\ANDREAS\DOCUMENTS\VISUAL STUDIO 2010\PROJECTS\RECAPP\CALENDAR\DEBUG\EVENTSPAN.OBJ|C:\USERS\ANDREAS\DOCUMENTS\VISUAL STUDIO 2010\PROJECTS\RECAPP\CALENDAR\DEBUG\STDAFX.OBJ|C:\USERS\ANDREAS\DOCUMENTS\VISUAL STUDIO 2010\PROJECTS\RECAPP\CALENDAR\DEBUG\WEEK.OBJ
C:\USERS\ANDREAS\DOCUMENTS\VISUAL STUDIO 2010\PROJECTS\RECAPP\DEBUG\CALENDAR.ILK
C:\USERS\ANDREAS\DOCUMENTS\VISUAL STUDIO 2010\PROJECTS\RECAPP\DEBUG\CALENDAR.DLL
C:\USERS\ANDREAS\DOCUMENTS\VISUAL STUDIO 2010\PROJECTS\RECAPP\CALENDAR\DEBUG\CALENDAR.DLL.INTERMEDIATE.MANIFEST
C:\USERS\ANDREAS\DOCUMENTS\VISUAL STUDIO 2010\PROJECTS\RECAPP\DEBUG\CALENDAR.PDB
