^C:\USERS\ANDREAS\DOCUMENTS\VISUAL STUDIO 2010\PROJECTS\RECAPP\CALENDAR\DEBUG\.NETFRAMEWORK,VERSION=V4.0.ASSEMBLYATTRIBUTES.OBJ|C:\USERS\ANDREAS\DOCUMENTS\VISUAL STUDIO 2010\PROJECTS\RECAPP\CALENDAR\DEBUG\APP.RES|C:\USERS\ANDREAS\DOCUMENTS\VISUAL STUDIO 2010\PROJECTS\RECAPP\CALENDAR\DEBUG\ASSEMBLYINFO.OBJ|C:\USERS\ANDREAS\DOCUMENTS\VISUAL STUDIO 2010\PROJECTS\RECAPP\CALENDAR\DEBUG\CALENDARCONTROL.OBJ|C:\USERS\ANDREAS\DOCUMENTS\VISUAL STUDIO 2010\PROJECTS\RECAPP\CALENDAR\DEBUG\EVENTSPAN.OBJ|C:\USERS\ANDREAS\DOCUMENTS\VISUAL STUDIO 2010\PROJECTS\RECAPP\CALENDAR\DEBUG\STDAFX.OBJ|C:\USERS\ANDREAS\DOCUMENTS\VISUAL STUDIO 2010\PROJECTS\RECAPP\CALENDAR\DEBUG\WEEK.OBJ
/ERRORREPORT:PROMPT /OUT:"C:\Users\andreas\Documents\Visual Studio 2010\Projects\recapp\Debug\Calendar.dll" /INCREMENTAL /NOLOGO /ASSEMBLYRESOURCE:Debug\Calendar.CalendarControl.resources /MANIFEST /ManifestFile:"Debug\Calendar.dll.intermediate.manifest" /MANIFESTUAC:"level='asInvoker' uiAccess='false'" /DEBUG /PDB:"C:\Users\andreas\Documents\Visual Studio 2010\Projects\recapp\Debug\Calendar.pdb" /ASSEMBLYDEBUG /TLBID:1 /DYNAMICBASE /FIXED:NO /NXCOMPAT /MACHINE:X86 /DLL Debug\app.res
Debug\AssemblyInfo.obj
Debug\CalendarControl.obj
Debug\EventSpan.obj
Debug\stdafx.obj
Debug\Week.obj
"Debug\.NETFramework,Version=v4.0.AssemblyAttributes.obj"
