^C:\USERS\ANDREAS\DOCUMENTS\VISUAL STUDIO 2010\PROJECTS\RECAPP\CALENDAR\DEBUG\.NETFRAMEWORK,VERSION=V4.0.ASSEMBLYATTRIBUTES.OBJ|C:\USERS\ANDREAS\DOCUMENTS\VISUAL STUDIO 2010\PROJECTS\RECAPP\CALENDAR\DEBUG\APP.RES|C:\USERS\ANDREAS\DOCUMENTS\VISUAL STUDIO 2010\PROJECTS\RECAPP\CALENDAR\DEBUG\ASSEMBLYINFO.OBJ|C:\USERS\ANDREAS\DOCUMENTS\VISUAL STUDIO 2010\PROJECTS\RECAPP\CALENDAR\DEBUG\CALENDARCONTROL.OBJ|C:\USERS\ANDREAS\DOCUMENTS\VISUAL STUDIO 2010\PROJECTS\RECAPP\CALENDAR\DEBUG\EVENTSPAN.OBJ|C:\USERS\ANDREAS\DOCUMENTS\VISUAL STUDIO 2010\PROJECTS\RECAPP\CALENDAR\DEBUG\STDAFX.OBJ|C:\USERS\ANDREAS\DOCUMENTS\VISUAL STUDIO 2010\PROJECTS\RECAPP\CALENDAR\DEBUG\WEEK.OBJ
C:\USERS\ANDREAS\DOCUMENTS\VISUAL STUDIO 2010\PROJECTS\RECAPP\CALENDAR\DEBUG\APP.RES
C:\USERS\ANDREAS\DOCUMENTS\VISUAL STUDIO 2010\PROJECTS\RECAPP\CALENDAR\DEBUG\ASSEMBLYINFO.OBJ
C:\USERS\ANDREAS\DOCUMENTS\VISUAL STUDIO 2010\PROJECTS\RECAPP\CALENDAR\DEBUG\CALENDARCONTROL.OBJ
C:\USERS\ANDREAS\DOCUMENTS\VISUAL STUDIO 2010\PROJECTS\RECAPP\CALENDAR\DEBUG\EVENTSPAN.OBJ
C:\USERS\ANDREAS\DOCUMENTS\VISUAL STUDIO 2010\PROJECTS\RECAPP\CALENDAR\DEBUG\STDAFX.OBJ
C:\USERS\ANDREAS\DOCUMENTS\VISUAL STUDIO 2010\PROJECTS\RECAPP\CALENDAR\DEBUG\WEEK.OBJ
C:\USERS\ANDREAS\DOCUMENTS\VISUAL STUDIO 2010\PROJECTS\RECAPP\CALENDAR\DEBUG\.NETFRAMEWORK,VERSION=V4.0.ASSEMBLYATTRIBUTES.OBJ
C:\WINDOWS\SYSTEM32\TZRES.DLL
C:\WINDOWS\GLOBALIZATION\SORTING\SORTDEFAULT.NLS
C:\PROGRAM FILES (X86)\MICROSOFT VISUAL STUDIO 10.0\VC\BIN\LINK.EXE
C:\WINDOWS\SYSTEM32\RSAENH.DLL
C:\WINDOWS\MICROSOFT.NET\FRAMEWORK\V2.0.50727\MSCORWKS.DLL
C:\WINDOWS\MICROSOFT.NET\FRAMEWORK\V4.0.30319\CLR.DLL
C:\PROGRAM FILES (X86)\MICROSOFT VISUAL STUDIO 10.0\VC\BIN\LINK.EXE.CONFIG
C:\PROGRAM FILES (X86)\MICROSOFT VISUAL STUDIO 10.0\VC\LIB\OLDNAMES.LIB
C:\PROGRAM FILES (X86)\MICROSOFT VISUAL STUDIO 10.0\VC\LIB\MSVCURTD.LIB
C:\PROGRAM FILES (X86)\MICROSOFT SDKS\WINDOWS\V7.0A\LIB\MSCOREE.LIB
C:\PROGRAM FILES (X86)\MICROSOFT SDKS\WINDOWS\V7.0A\LIB\KERNEL32.LIB
C:\PROGRAM FILES (X86)\MICROSOFT SDKS\WINDOWS\V7.0A\LIB\UUID.LIB
C:\PROGRAM FILES (X86)\MICROSOFT VISUAL STUDIO 10.0\VC\BIN\CVTRES.EXE
C:\USERS\ANDREAS\DOCUMENTS\VISUAL STUDIO 2010\PROJECTS\RECAPP\CALENDAR\DEBUG\CALENDAR.CALENDARCONTROL.RESOURCES
